{
  "annotations": {
    "list": [

    ]
  },
  "editable": true,
  "hideControls": false,
  "id": null,
  "links": [
    {
      "asDropdown": true,
      "icon": "external link",
      "keepTime": true,
      "tags": [
        "controller"
      ],
      "title": "Controllers",
      "type": "dashboards"
    }
  ],
  "originalTitle": "Ruby Object Statistics",
  "rows": [
    {
      "collapse": false,
      "editable": true,
      "height": "250px",
      "panels": [
        {
          "aliasColors": {
            "Total": "#9AC48A"
          },
          "bars": false,
          "datasource": null,
          "decimals": 2,
          "editable": true,
          "error": false,
          "fill": 0,
          "grid": {
            "leftLogBase": 1,
            "leftMax": null,
            "leftMin": null,
            "rightLogBase": 1,
            "rightMax": null,
            "rightMin": null,
            "threshold1": null,
            "threshold1Color": "rgba(216, 200, 27, 0.27)",
            "threshold2": null,
            "threshold2Color": "rgba(234, 112, 112, 0.22)"
          },
          "id": 1,
          "interval": "1m",
          "isNew": true,
          "legend": {
            "avg": false,
            "current": false,
            "max": false,
            "min": false,
            "show": true,
            "total": false,
            "values": false
          },
          "lines": true,
          "linewidth": 1,
          "links": [

          ],
          "nullPointMode": "null",
          "percentage": false,
          "pointradius": 5,
          "points": false,
          "renderer": "flot",
          "seriesOverrides": [

          ],
          "span": 12,
          "stack": false,
          "steppedLine": false,
          "targets": [
            {
              "alias": "$col",
              "dsType": "influxdb",
              "groupBy": [
                {
                  "params": [
                    "$interval"
                  ],
                  "type": "time"
                },
                {
                  "params": [
                    "null"
                  ],
                  "type": "fill"
                }
              ],
              "measurement": "object_counts",
              "query": "SELECT \"count\" AS \"Total\" FROM gitlab.downsampled.\"[[process_type]]_object_counts_overall\" WHERE $timeFilter",
              "rawQuery": true,
              "refId": "A",
              "resultFormat": "time_series",
              "select": [
                [
                  {
                    "params": [
                      "value"
                    ],
                    "type": "field"
                  },
                  {
                    "params": [

                    ],
                    "type": "mean"
                  }
                ]
              ],
              "tags": [

              ]
            }
          ],
          "timeFrom": null,
          "timeShift": null,
          "title": "Total Object Counts",
          "tooltip": {
            "shared": true,
            "value_type": "cumulative"
          },
          "type": "graph",
          "x-axis": true,
          "y-axis": true,
          "y_formats": [
            "short",
            "short"
          ]
        },
        {
          "aliasColors": {
          },
          "bars": true,
          "datasource": null,
          "decimals": 2,
          "editable": true,
          "error": false,
          "fill": 1,
          "grid": {
            "leftLogBase": 1,
            "leftMax": null,
            "leftMin": null,
            "rightLogBase": 1,
            "rightMax": null,
            "rightMin": null,
            "threshold1": null,
            "threshold1Color": "rgba(216, 200, 27, 0.27)",
            "threshold2": null,
            "threshold2Color": "rgba(234, 112, 112, 0.22)"
          },
          "id": 10,
          "interval": "1m",
          "isNew": true,
          "legend": {
            "avg": false,
            "current": false,
            "hideEmpty": true,
            "hideZero": true,
            "max": false,
            "min": false,
            "rightSide": false,
            "show": true,
            "total": false,
            "values": false
          },
          "lines": false,
          "linewidth": 2,
          "links": [

          ],
          "nullPointMode": "null as zero",
          "percentage": false,
          "pointradius": 5,
          "points": false,
          "renderer": "flot",
          "seriesOverrides": [

          ],
          "span": 12,
          "stack": true,
          "steppedLine": false,
          "targets": [
            {
              "alias": "$tag_type",
              "dsType": "influxdb",
              "groupBy": [
                {
                  "params": [
                    "$interval"
                  ],
                  "type": "time"
                },
                {
                  "params": [
                    "null"
                  ],
                  "type": "fill"
                }
              ],
              "measurement": "object_counts",
              "query": "SELECT mean(\"count\") AS \"Amount\" FROM gitlab.downsampled.\"[[process_type]]_object_counts_per_type\" WHERE $timeFilter AND \"type\" =~ /^(String|Array|Hash|Set|Bignum|File|Float|Regexp|Rational|Struct|Symbol|Time|Class)$/ GROUP BY \"type\", time($interval)",
              "rawQuery": true,
              "refId": "A",
              "resultFormat": "time_series",
              "select": [
                [
                  {
                    "params": [
                      "value"
                    ],
                    "type": "field"
                  },
                  {
                    "params": [

                    ],
                    "type": "mean"
                  }
                ]
              ],
              "tags": [

              ]
            }
          ],
          "timeFrom": null,
          "timeShift": null,
          "title": "Core Type Objects",
          "tooltip": {
            "shared": true,
            "value_type": "individual"
          },
          "type": "graph",
          "x-axis": true,
          "y-axis": true,
          "y_formats": [
            "short",
            "short"
          ]
        }
      ],
      "title": "Row"
    },
    {
      "collapse": false,
      "editable": true,
      "height": "250px",
      "panels": [
        {
          "aliasColors": {
          },
          "bars": true,
          "datasource": null,
          "editable": true,
          "error": false,
          "fill": 1,
          "grid": {
            "leftLogBase": 1,
            "leftMax": null,
            "leftMin": null,
            "rightLogBase": 1,
            "rightMax": null,
            "rightMin": null,
            "threshold1": null,
            "threshold1Color": "rgba(216, 200, 27, 0.27)",
            "threshold2": null,
            "threshold2Color": "rgba(234, 112, 112, 0.22)"
          },
          "id": 3,
          "interval": "1m",
          "isNew": true,
          "legend": {
            "alignAsTable": false,
            "avg": false,
            "current": false,
            "hideEmpty": true,
            "hideZero": true,
            "max": false,
            "min": false,
            "show": true,
            "total": false,
            "values": false
          },
          "lines": false,
          "linewidth": 2,
          "links": [

          ],
          "nullPointMode": "connected",
          "percentage": false,
          "pointradius": 1,
          "points": false,
          "renderer": "flot",
          "seriesOverrides": [

          ],
          "span": 12,
          "stack": true,
          "steppedLine": false,
          "targets": [
            {
              "alias": "$tag_type",
              "dsType": "influxdb",
              "groupBy": [
                {
                  "params": [
                    "$interval"
                  ],
                  "type": "time"
                },
                {
                  "params": [
                    "null"
                  ],
                  "type": "fill"
                }
              ],
              "measurement": "object_counts",
              "query": "SELECT mean(\"count\") AS \"Amount\" FROM gitlab.downsampled.\"[[process_type]]_object_counts_per_type\" WHERE $timeFilter AND \"type\" =~ /^Rugged/ GROUP BY \"type\", time($interval)",
              "rawQuery": true,
              "refId": "A",
              "resultFormat": "time_series",
              "select": [
                [
                  {
                    "params": [
                      "value"
                    ],
                    "type": "field"
                  },
                  {
                    "params": [

                    ],
                    "type": "mean"
                  }
                ]
              ],
              "tags": [

              ]
            }
          ],
          "timeFrom": null,
          "timeShift": null,
          "title": "Rugged Objects",
          "tooltip": {
            "shared": true,
            "value_type": "individual"
          },
          "type": "graph",
          "x-axis": true,
          "y-axis": true,
          "y_formats": [
            "short",
            "short"
          ]
        },
        {
          "aliasColors": {
          },
          "bars": true,
          "datasource": null,
          "editable": true,
          "error": false,
          "fill": 1,
          "grid": {
            "leftLogBase": 1,
            "leftMax": null,
            "leftMin": null,
            "rightLogBase": 1,
            "rightMax": null,
            "rightMin": null,
            "threshold1": null,
            "threshold1Color": "rgba(216, 200, 27, 0.27)",
            "threshold2": null,
            "threshold2Color": "rgba(234, 112, 112, 0.22)"
          },
          "id": 5,
          "interval": "1m",
          "isNew": true,
          "legend": {
            "alignAsTable": false,
            "avg": false,
            "current": false,
            "hideEmpty": true,
            "hideZero": true,
            "max": false,
            "min": false,
            "show": true,
            "total": false,
            "values": false
          },
          "lines": false,
          "linewidth": 2,
          "links": [

          ],
          "nullPointMode": "connected",
          "percentage": false,
          "pointradius": 1,
          "points": false,
          "renderer": "flot",
          "seriesOverrides": [

          ],
          "span": 12,
          "stack": true,
          "steppedLine": false,
          "targets": [
            {
              "alias": "$tag_type",
              "dsType": "influxdb",
              "groupBy": [
                {
                  "params": [
                    "$interval"
                  ],
                  "type": "time"
                },
                {
                  "params": [
                    "null"
                  ],
                  "type": "fill"
                }
              ],
              "measurement": "object_counts",
              "query": "SELECT mean(\"count\") AS \"Amount\" FROM gitlab.downsampled.\"[[process_type]]_object_counts_per_type\" WHERE $timeFilter AND \"type\" =~ /^Gitlab::Git/ GROUP BY \"type\", time($interval)",
              "rawQuery": true,
              "refId": "A",
              "resultFormat": "time_series",
              "select": [
                [
                  {
                    "params": [
                      "value"
                    ],
                    "type": "field"
                  },
                  {
                    "params": [

                    ],
                    "type": "mean"
                  }
                ]
              ],
              "tags": [

              ]
            }
          ],
          "timeFrom": null,
          "timeShift": null,
          "title": "Gitlab::Git Objects",
          "tooltip": {
            "shared": true,
            "value_type": "individual"
          },
          "type": "graph",
          "x-axis": true,
          "y-axis": true,
          "y_formats": [
            "short",
            "short"
          ]
        },
        {
          "aliasColors": {
          },
          "bars": true,
          "datasource": null,
          "editable": true,
          "error": false,
          "fill": 1,
          "grid": {
            "leftLogBase": 1,
            "leftMax": null,
            "leftMin": null,
            "rightLogBase": 1,
            "rightMax": null,
            "rightMin": null,
            "threshold1": null,
            "threshold1Color": "rgba(216, 200, 27, 0.27)",
            "threshold2": null,
            "threshold2Color": "rgba(234, 112, 112, 0.22)"
          },
          "id": 11,
          "interval": "1m",
          "isNew": true,
          "legend": {
            "alignAsTable": false,
            "avg": false,
            "current": false,
            "hideEmpty": true,
            "hideZero": true,
            "max": false,
            "min": false,
            "show": true,
            "total": false,
            "values": false
          },
          "lines": false,
          "linewidth": 2,
          "links": [

          ],
          "nullPointMode": "connected",
          "percentage": false,
          "pointradius": 1,
          "points": false,
          "renderer": "flot",
          "seriesOverrides": [

          ],
          "span": 12,
          "stack": true,
          "steppedLine": false,
          "targets": [
            {
              "alias": "$tag_type",
              "dsType": "influxdb",
              "groupBy": [
                {
                  "params": [
                    "$interval"
                  ],
                  "type": "time"
                },
                {
                  "params": [
                    "null"
                  ],
                  "type": "fill"
                }
              ],
              "measurement": "object_counts",
              "query": "SELECT mean(\"count\") AS \"Amount\" FROM gitlab.downsampled.\"[[process_type]]_object_counts_per_type\" WHERE $timeFilter AND \"type\" =~ /^InfluxDB/ GROUP BY \"type\", time($interval)",
              "rawQuery": true,
              "refId": "A",
              "resultFormat": "time_series",
              "select": [
                [
                  {
                    "params": [
                      "value"
                    ],
                    "type": "field"
                  },
                  {
                    "params": [

                    ],
                    "type": "mean"
                  }
                ]
              ],
              "tags": [

              ]
            }
          ],
          "timeFrom": null,
          "timeShift": null,
          "title": "InfluxDB Objects",
          "tooltip": {
            "shared": true,
            "value_type": "individual"
          },
          "type": "graph",
          "x-axis": true,
          "y-axis": true,
          "y_formats": [
            "short",
            "short"
          ]
        },
        {
          "aliasColors": {
          },
          "bars": true,
          "datasource": null,
          "editable": true,
          "error": false,
          "fill": 1,
          "grid": {
            "leftLogBase": 1,
            "leftMax": null,
            "leftMin": null,
            "rightLogBase": 1,
            "rightMax": null,
            "rightMin": null,
            "threshold1": null,
            "threshold1Color": "rgba(216, 200, 27, 0.27)",
            "threshold2": null,
            "threshold2Color": "rgba(234, 112, 112, 0.22)"
          },
          "id": 12,
          "interval": "1m",
          "isNew": true,
          "legend": {
            "alignAsTable": false,
            "avg": false,
            "current": false,
            "hideEmpty": true,
            "hideZero": true,
            "max": false,
            "min": false,
            "show": true,
            "total": false,
            "values": false
          },
          "lines": false,
          "linewidth": 2,
          "links": [

          ],
          "nullPointMode": "connected",
          "percentage": false,
          "pointradius": 1,
          "points": false,
          "renderer": "flot",
          "seriesOverrides": [

          ],
          "span": 12,
          "stack": true,
          "steppedLine": false,
          "targets": [
            {
              "alias": "$tag_type",
              "dsType": "influxdb",
              "groupBy": [
                {
                  "params": [
                    "$interval"
                  ],
                  "type": "time"
                },
                {
                  "params": [
                    "null"
                  ],
                  "type": "fill"
                }
              ],
              "measurement": "object_counts",
              "query": "SELECT mean(\"count\") AS \"Amount\" FROM gitlab.downsampled.\"[[process_type]]_object_counts_per_type\" WHERE $timeFilter AND \"type\" =~ /^Gitlab::Metrics/ GROUP BY \"type\", time($interval)",
              "rawQuery": true,
              "refId": "A",
              "resultFormat": "time_series",
              "select": [
                [
                  {
                    "params": [
                      "value"
                    ],
                    "type": "field"
                  },
                  {
                    "params": [

                    ],
                    "type": "mean"
                  }
                ]
              ],
              "tags": [

              ]
            }
          ],
          "timeFrom": null,
          "timeShift": null,
          "title": "Gitlab::Metrics Objects",
          "tooltip": {
            "shared": true,
            "value_type": "individual"
          },
          "type": "graph",
          "x-axis": true,
          "y-axis": true,
          "y_formats": [
            "short",
            "short"
          ]
        }
      ],
      "title": "New row"
    }
  ],
  "schemaVersion": 8,
  "sharedCrosshair": false,
  "style": "dark",
  "tags": [
    "ruby"
  ],
  "templating": {
    "list": [
      {
        "allFormat": "regex values",
        "current": {
          "text": "rails",
          "value": "rails"
        },
        "datasource": null,
        "hideLabel": false,
        "includeAll": false,
        "label": "Process Type",
        "multi": false,
        "multiFormat": "regex values",
        "name": "process_type",
        "options": [
          {
            "selected": true,
            "text": "rails",
            "value": "rails"
          },
          {
            "selected": false,
            "text": "sidekiq",
            "value": "sidekiq"
          }
        ],
        "query": "rails,sidekiq",
        "refresh": false,
        "type": "custom"
      }
    ]
  },
  "time": {
    "from": "now-3h",
    "to": "now"
  },
  "timepicker": {
    "now": true,
    "refresh_intervals": [
      "5s",
      "10s",
      "30s",
      "1m",
      "5m",
      "15m",
      "30m",
      "1h",
      "2h",
      "1d"
    ],
    "time_options": [
      "5m",
      "15m",
      "1h",
      "6h",
      "12h",
      "24h",
      "2d",
      "7d",
      "30d"
    ]
  },
  "timezone": "utc",
  "title": "Ruby Object Statistics",
  "version": 21
}